"DATA/CN_L_3_20010404T165900.LBL","CN_L_3_20010404T165900",2018-01-25T13:39:52.000
"DATA/CN_L_3_20010404T171000.LBL","CN_L_3_20010404T171000",2018-01-25T13:39:52.000
"DATA/CN_L_3_20010404T172200.LBL","CN_L_3_20010404T172200",2018-01-25T13:39:52.000
"DATA/CN_L_3_20010404T173300.LBL","CN_L_3_20010404T173300",2018-01-25T13:39:53.000
"DATA/CN_L_3_20010404T195800.LBL","CN_L_3_20010404T195800",2018-01-25T13:39:31.000
"DATA/CN_L_3_20010405T095300.LBL","CN_L_3_20010405T095300",2018-01-25T13:39:27.000
"DATA/CN_L_3_20010405T100700.LBL","CN_L_3_20010405T100700",2018-01-25T13:39:28.000
"DATA/CN_L_3_20010405T101700.LBL","CN_L_3_20010405T101700",2018-01-25T13:39:28.000
"DATA/CN_L_3_20010405T102700.LBL","CN_L_3_20010405T102700",2018-01-25T13:39:28.000
"DATA/CN_L_3_20010405T114200.LBL","CN_L_3_20010405T114200",2018-01-25T13:39:28.000
"DATA/CN_L_3_20010405T115100.LBL","CN_L_3_20010405T115100",2018-01-25T13:39:28.000
"DATA/CN_L_3_20010405T120100.LBL","CN_L_3_20010405T120100",2018-01-25T13:39:29.000
"DATA/CN_L_3_20010405T121000.LBL","CN_L_3_20010405T121000",2018-01-25T13:39:29.000
"DATA/CN_L_3_20010405T122000.LBL","CN_L_3_20010405T122000",2018-01-25T13:39:29.000
"DATA/CN_L_3_20010405T123000.LBL","CN_L_3_20010405T123000",2018-01-25T13:39:29.000
"DATA/CN_L_3_20010405T140400.LBL","CN_L_3_20010405T140400",2018-01-25T13:39:29.000
"DATA/CN_L_3_20010405T142000.LBL","CN_L_3_20010405T142000",2018-01-25T13:39:29.000
"DATA/CN_L_3_20010405T142800.LBL","CN_L_3_20010405T142800",2018-01-25T13:39:29.000
"DATA/CN_L_3_20010405T144100.LBL","CN_L_3_20010405T144100",2018-01-25T13:39:30.000
"DATA/CN_L_3_20010405T145200.LBL","CN_L_3_20010405T145200",2018-01-25T13:39:30.000
"DATA/CN_L_3_20010405T150600.LBL","CN_L_3_20010405T150600",2018-01-25T13:39:30.000
"DATA/CN_L_3_20010405T152400.LBL","CN_L_3_20010405T152400",2018-01-25T13:39:30.000
"DATA/CN_L_3_20010405T153400.LBL","CN_L_3_20010405T153400",2018-01-25T13:39:29.000
"DATA/CN_L_3_20010405T155000.LBL","CN_L_3_20010405T155000",2018-01-25T13:39:28.000
"DATA/CN_L_3_20010405T160100.LBL","CN_L_3_20010405T160100",2018-01-25T13:39:28.000
"DATA/CN_L_3_20010405T162100.LBL","CN_L_3_20010405T162100",2018-01-25T13:39:41.000
"DATA/CN_L_3_20010405T164900.LBL","CN_L_3_20010405T164900",2018-01-25T13:39:41.000
"DATA/CN_L_3_20010411T105200.LBL","CN_L_3_20010411T105200",2018-01-25T13:39:54.000
"DATA/CN_L_3_20010411T110300.LBL","CN_L_3_20010411T110300",2018-01-25T13:39:54.000
"DATA/CN_L_3_20010411T151000.LBL","CN_L_3_20010411T151000",2018-01-25T13:39:57.000
"DATA/CN_L_3_20010411T152700.LBL","CN_L_3_20010411T152700",2018-01-25T13:39:57.000
"DATA/CN_L_3_20010411T163100.LBL","CN_L_3_20010411T163100",2018-01-25T13:39:56.000
"DATA/CN_L_3_20010411T164600.LBL","CN_L_3_20010411T164600",2018-01-25T13:39:56.000
"DATA/CN_L_3_20010411T165600.LBL","CN_L_3_20010411T165600",2018-01-25T13:39:56.000
"DATA/CN_L_3_20010411T170600.LBL","CN_L_3_20010411T170600",2018-01-25T13:39:56.000
"DATA/CN_L_3_20010411T172100.LBL","CN_L_3_20010411T172100",2018-01-25T13:39:56.000
"DATA/CN_L_3_20010411T173000.LBL","CN_L_3_20010411T173000",2018-01-25T13:39:56.000
"DATA/CN_L_3_20010411T173900.LBL","CN_L_3_20010411T173900",2018-01-25T13:39:57.000
"DATA/CN_L_3_20010411T175200.LBL","CN_L_3_20010411T175200",2018-01-25T13:39:57.000
"DATA/CN_L_3_20010411T180100.LBL","CN_L_3_20010411T180100",2018-01-25T13:39:57.000
"DATA/CN_L_3_20010411T181000.LBL","CN_L_3_20010411T181000",2018-01-25T13:39:57.000
"DATA/CN_L_3_20010411T181900.LBL","CN_L_3_20010411T181900",2018-01-25T13:39:57.000
"DATA/CN_L_3_20010411T182800.LBL","CN_L_3_20010411T182800",2018-01-25T13:39:57.000
"DATA/CN_L_3_20010412T104600.LBL","CN_L_3_20010412T104600",2018-01-25T13:39:46.000
"DATA/CN_L_3_20010412T110700.LBL","CN_L_3_20010412T110700",2018-01-25T13:39:47.000
"DATA/CN_L_3_20010412T145600.LBL","CN_L_3_20010412T145600",2018-01-25T13:39:46.000
"DATA/CN_L_3_20010412T153900.LBL","CN_L_3_20010412T153900",2018-01-25T13:39:46.000
"DATA/CN_L_3_20010412T154800.LBL","CN_L_3_20010412T154800",2018-01-25T13:39:46.000
"DATA/CN_L_3_20010412T155800.LBL","CN_L_3_20010412T155800",2018-01-25T13:40:27.000
"DATA/CN_L_3_20010412T160800.LBL","CN_L_3_20010412T160800",2018-01-25T13:39:46.000
"DATA/CN_L_3_20010412T161700.LBL","CN_L_3_20010412T161700",2018-01-25T13:39:46.000
"DATA/CN_L_3_20010412T162600.LBL","CN_L_3_20010412T162600",2018-01-25T13:39:46.000
"DATA/CN_L_3_20010412T164400.LBL","CN_L_3_20010412T164400",2018-01-25T13:39:46.000
"DATA/CN_L_3_20010412T165300.LBL","CN_L_3_20010412T165300",2018-01-25T13:39:46.000
"DATA/CN_L_3_20010412T170600.LBL","CN_L_3_20010412T170600",2018-01-25T13:39:43.000
"DATA/CN_L_3_20010412T184000.LBL","CN_L_3_20010412T184000",2018-01-25T13:39:59.000
"DATA/CN_L_3_20010413T103400.LBL","CN_L_3_20010413T103400",2018-01-25T13:39:48.000
"DATA/CN_L_3_20010413T151200.LBL","CN_L_3_20010413T151200",2018-01-25T13:40:11.000
"DATA/CN_L_3_20010414T112200.LBL","CN_L_3_20010414T112200",2018-01-25T13:40:28.000
"DATA/CN_L_3_20010415T130300.LBL","CN_L_3_20010415T130300",2018-01-25T13:40:48.000
"DATA/CN_L_3_20010416T144300.LBL","CN_L_3_20010416T144300",2018-01-25T13:41:08.000
"DATA/CN_L_3_20010417T135900.LBL","CN_L_3_20010417T135900",2018-01-25T13:39:53.000
"DATA/CN_L_3_20010417T141500.LBL","CN_L_3_20010417T141500",2018-01-25T13:39:53.000
"DATA/CN_L_3_20010417T142500.LBL","CN_L_3_20010417T142500",2018-01-25T13:39:53.000
"DATA/CN_L_3_20010417T150300.LBL","CN_L_3_20010417T150300",2018-01-25T13:39:53.000
"DATA/CN_L_3_20010417T151700.LBL","CN_L_3_20010417T151700",2018-01-25T13:39:53.000
"DATA/CN_L_3_20010417T153800.LBL","CN_L_3_20010417T153800",2018-01-25T13:39:53.000
"DATA/CN_L_3_20010417T154900.LBL","CN_L_3_20010417T154900",2018-01-25T13:39:53.000
"DATA/CN_L_3_20010417T160100.LBL","CN_L_3_20010417T160100",2018-01-25T13:39:54.000
"DATA/CN_L_3_20010417T161200.LBL","CN_L_3_20010417T161200",2018-01-25T13:39:54.000
"DATA/CN_L_3_20010418T094300.LBL","CN_L_3_20010418T094300",2018-01-25T13:39:51.000
"DATA/CN_L_3_20010418T105700.LBL","CN_L_3_20010418T105700",2018-01-25T13:39:49.000
"DATA/CN_L_3_20010418T111200.LBL","CN_L_3_20010418T111200",2018-01-25T13:39:50.000
"DATA/CN_L_3_20010418T112200.LBL","CN_L_3_20010418T112200",2018-01-25T13:39:50.000
"DATA/CN_L_3_20010418T113200.LBL","CN_L_3_20010418T113200",2018-01-25T13:39:50.000
"DATA/CN_L_3_20010418T114100.LBL","CN_L_3_20010418T114100",2018-01-25T13:39:50.000
"DATA/CN_L_3_20010418T115000.LBL","CN_L_3_20010418T115000",2018-01-25T13:39:50.000
"DATA/CN_L_3_20010418T120000.LBL","CN_L_3_20010418T120000",2018-01-25T13:39:50.000
"DATA/CN_L_3_20010418T121100.LBL","CN_L_3_20010418T121100",2018-01-25T13:39:50.000
"DATA/CN_L_3_20010418T121900.LBL","CN_L_3_20010418T121900",2018-01-25T13:39:50.000
"DATA/CN_L_3_20010418T122800.LBL","CN_L_3_20010418T122800",2018-01-25T13:39:50.000
"DATA/CN_L_3_20010418T124300.LBL","CN_L_3_20010418T124300",2018-01-25T13:39:51.000
"DATA/CN_L_3_20010418T125300.LBL","CN_L_3_20010418T125300",2018-01-25T13:39:51.000
"DATA/CN_L_3_20010419T112000.LBL","CN_L_3_20010419T112000",2018-01-25T13:39:45.000
"DATA/CN_L_3_20010419T155500.LBL","CN_L_3_20010419T155500",2018-01-25T13:39:52.000
"DATA/CN_L_3_20010727T115500.LBL","CN_L_3_20010727T115500",2018-01-25T13:42:53.000
"DATA/CN_L_3_20010730T102100.LBL","CN_L_3_20010730T102100",2018-01-25T13:42:57.000
"DATA/CN_L_3_20011015T173200.LBL","CN_L_3_20011015T173200",2018-01-25T13:41:57.000
"DATA/CN_L_3_20011015T191600.LBL","CN_L_3_20011015T191600",2018-01-25T13:42:01.000
"DATA/CN_L_3_20011016T103600.LBL","CN_L_3_20011016T103600",2018-01-25T13:42:14.000
"DATA/CN_L_3_20011016T171600.LBL","CN_L_3_20011016T171600",2018-01-25T13:42:16.000
"DATA/CN_L_3_20011016T183000.LBL","CN_L_3_20011016T183000",2018-01-25T13:42:17.000
"DATA/CN_L_3_20011016T190100.LBL","CN_L_3_20011016T190100",2018-01-25T13:42:18.000
"DATA/CN_L_3_20011017T105300.LBL","CN_L_3_20011017T105300",2018-01-25T13:41:40.000
"DATA/CN_L_3_20011017T181700.LBL","CN_L_3_20011017T181700",2018-01-25T13:41:43.000
"DATA/CN_L_3_20011018T100000.LBL","CN_L_3_20011018T100000",2018-01-25T13:42:30.000
"DATA/CN_L_3_20011018T102000.LBL","CN_L_3_20011018T102000",2018-01-25T13:42:30.000
"DATA/CN_L_3_20011018T104000.LBL","CN_L_3_20011018T104000",2018-01-25T13:42:31.000
"DATA/CN_L_3_20011018T120900.LBL","CN_L_3_20011018T120900",2018-01-25T13:42:31.000
"DATA/CN_L_3_20011018T122500.LBL","CN_L_3_20011018T122500",2018-01-25T13:41:59.000
"DATA/CN_L_3_20011018T192100.LBL","CN_L_3_20011018T192100",2018-01-25T13:41:25.000
"DATA/CN_L_3_20011019T102900.LBL","CN_L_3_20011019T102900",2018-01-25T13:41:37.000
"DATA/CN_L_3_20011019T134300.LBL","CN_L_3_20011019T134300",2018-01-25T13:41:39.000
"DATA/CN_L_3_20011019T143500.LBL","CN_L_3_20011019T143500",2018-01-25T13:41:40.000
"DATA/CN_L_3_20020416T113200.LBL","CN_L_3_20020416T113200",2018-01-25T13:42:32.000
"DATA/CN_L_3_20020416T163300.LBL","CN_L_3_20020416T163300",2018-01-25T13:42:35.000
"DATA/CN_L_3_20020416T180200.LBL","CN_L_3_20020416T180200",2018-01-25T13:42:41.000
"DATA/CN_L_3_20020417T101000.LBL","CN_L_3_20020417T101000",2018-01-25T13:42:38.000
"DATA/CN_L_3_20020417T144300.LBL","CN_L_3_20020417T144300",2018-01-25T13:42:36.000
"DATA/CN_L_3_20020417T150000.LBL","CN_L_3_20020417T150000",2018-01-25T13:42:36.000
"DATA/CN_O_3_20010404T165939.LBL","CN_O_3_20010404T165939",2018-01-25T13:39:52.000
"DATA/CN_O_3_20010404T171042.LBL","CN_O_3_20010404T171042",2018-01-25T13:39:52.000
"DATA/CN_O_3_20010404T172259.LBL","CN_O_3_20010404T172259",2018-01-25T13:39:52.000
"DATA/CN_O_3_20010404T173351.LBL","CN_O_3_20010404T173351",2018-01-25T13:39:53.000
"DATA/CN_O_3_20010404T195818.LBL","CN_O_3_20010404T195818",2018-01-25T13:39:31.000
"DATA/CN_O_3_20010405T095304.LBL","CN_O_3_20010405T095304",2018-01-25T13:39:27.000
"DATA/CN_O_3_20010405T100708.LBL","CN_O_3_20010405T100708",2018-01-25T13:39:28.000
"DATA/CN_O_3_20010405T101736.LBL","CN_O_3_20010405T101736",2018-01-25T13:39:28.000
"DATA/CN_O_3_20010405T102758.LBL","CN_O_3_20010405T102758",2018-01-25T13:39:28.000
"DATA/CN_O_3_20010405T114208.LBL","CN_O_3_20010405T114208",2018-01-25T13:39:28.000
"DATA/CN_O_3_20010405T115144.LBL","CN_O_3_20010405T115144",2018-01-25T13:39:28.000
"DATA/CN_O_3_20010405T120143.LBL","CN_O_3_20010405T120143",2018-01-25T13:39:29.000
"DATA/CN_O_3_20010405T121037.LBL","CN_O_3_20010405T121037",2018-01-25T13:39:29.000
"DATA/CN_O_3_20010405T122045.LBL","CN_O_3_20010405T122045",2018-01-25T13:39:29.000
"DATA/CN_O_3_20010405T123034.LBL","CN_O_3_20010405T123034",2018-01-25T13:39:29.000
"DATA/CN_O_3_20010405T140406.LBL","CN_O_3_20010405T140406",2018-01-25T13:39:29.000
"DATA/CN_O_3_20010405T142051.LBL","CN_O_3_20010405T142051",2018-01-25T13:39:29.000
"DATA/CN_O_3_20010405T142840.LBL","CN_O_3_20010405T142840",2018-01-25T13:39:29.000
"DATA/CN_O_3_20010405T144142.LBL","CN_O_3_20010405T144142",2018-01-25T13:39:30.000
"DATA/CN_O_3_20010405T145202.LBL","CN_O_3_20010405T145202",2018-01-25T13:39:30.000
"DATA/CN_O_3_20010405T150656.LBL","CN_O_3_20010405T150656",2018-01-25T13:39:30.000
"DATA/CN_O_3_20010405T152426.LBL","CN_O_3_20010405T152426",2018-01-25T13:39:30.000
"DATA/CN_O_3_20010405T153428.LBL","CN_O_3_20010405T153428",2018-01-25T13:39:29.000
"DATA/CN_O_3_20010405T155003.LBL","CN_O_3_20010405T155003",2018-01-25T13:39:28.000
"DATA/CN_O_3_20010405T160131.LBL","CN_O_3_20010405T160131",2018-01-25T13:39:28.000
"DATA/CN_O_3_20010405T162123.LBL","CN_O_3_20010405T162123",2018-01-25T13:39:41.000
"DATA/CN_O_3_20010405T164956.LBL","CN_O_3_20010405T164956",2018-01-25T13:39:41.000
"DATA/CN_O_3_20010411T105229.LBL","CN_O_3_20010411T105229",2018-01-25T13:39:54.000
"DATA/CN_O_3_20010411T110317.LBL","CN_O_3_20010411T110317",2018-01-25T13:39:54.000
"DATA/CN_O_3_20010411T151037.LBL","CN_O_3_20010411T151037",2018-01-25T13:39:57.000
"DATA/CN_O_3_20010411T152736.LBL","CN_O_3_20010411T152736",2018-01-25T13:39:57.000
"DATA/CN_O_3_20010411T163121.LBL","CN_O_3_20010411T163121",2018-01-25T13:39:56.000
"DATA/CN_O_3_20010411T164611.LBL","CN_O_3_20010411T164611",2018-01-25T13:39:56.000
"DATA/CN_O_3_20010411T165641.LBL","CN_O_3_20010411T165641",2018-01-25T13:39:56.000
"DATA/CN_O_3_20010411T170648.LBL","CN_O_3_20010411T170648",2018-01-25T13:39:56.000
"DATA/CN_O_3_20010411T172107.LBL","CN_O_3_20010411T172107",2018-01-25T13:39:56.000
"DATA/CN_O_3_20010411T173033.LBL","CN_O_3_20010411T173033",2018-01-25T13:39:56.000
"DATA/CN_O_3_20010411T173938.LBL","CN_O_3_20010411T173938",2018-01-25T13:39:57.000
"DATA/CN_O_3_20010411T175254.LBL","CN_O_3_20010411T175254",2018-01-25T13:39:57.000
"DATA/CN_O_3_20010411T180153.LBL","CN_O_3_20010411T180153",2018-01-25T13:39:57.000
"DATA/CN_O_3_20010411T181057.LBL","CN_O_3_20010411T181057",2018-01-25T13:39:57.000
"DATA/CN_O_3_20010411T181948.LBL","CN_O_3_20010411T181948",2018-01-25T13:39:57.000
"DATA/CN_O_3_20010411T182844.LBL","CN_O_3_20010411T182844",2018-01-25T13:39:57.000
"DATA/CN_O_3_20010412T104640.LBL","CN_O_3_20010412T104640",2018-01-25T13:39:46.000
"DATA/CN_O_3_20010412T110749.LBL","CN_O_3_20010412T110749",2018-01-25T13:39:47.000
"DATA/CN_O_3_20010412T145600.LBL","CN_O_3_20010412T145600",2018-01-25T13:39:46.000
"DATA/CN_O_3_20010412T153905.LBL","CN_O_3_20010412T153905",2018-01-25T13:39:46.000
"DATA/CN_O_3_20010412T154809.LBL","CN_O_3_20010412T154809",2018-01-25T13:39:46.000
"DATA/CN_O_3_20010412T155859.LBL","CN_O_3_20010412T155859",2018-01-25T13:40:27.000
"DATA/CN_O_3_20010412T160822.LBL","CN_O_3_20010412T160822",2018-01-25T13:39:46.000
"DATA/CN_O_3_20010412T161716.LBL","CN_O_3_20010412T161716",2018-01-25T13:39:46.000
"DATA/CN_O_3_20010412T162624.LBL","CN_O_3_20010412T162624",2018-01-25T13:39:46.000
"DATA/CN_O_3_20010412T164410.LBL","CN_O_3_20010412T164410",2018-01-25T13:39:46.000
"DATA/CN_O_3_20010412T165332.LBL","CN_O_3_20010412T165332",2018-01-25T13:39:46.000
"DATA/CN_O_3_20010412T170640.LBL","CN_O_3_20010412T170640",2018-01-25T13:39:43.000
"DATA/CN_O_3_20010412T184021.LBL","CN_O_3_20010412T184021",2018-01-25T13:39:59.000
"DATA/CN_O_3_20010413T103403.LBL","CN_O_3_20010413T103403",2018-01-25T13:39:48.000
"DATA/CN_O_3_20010413T151201.LBL","CN_O_3_20010413T151201",2018-01-25T13:40:11.000
"DATA/CN_O_3_20010414T112251.LBL","CN_O_3_20010414T112251",2018-01-25T13:40:28.000
"DATA/CN_O_3_20010415T130324.LBL","CN_O_3_20010415T130324",2018-01-25T13:40:48.000
"DATA/CN_O_3_20010416T144358.LBL","CN_O_3_20010416T144358",2018-01-25T13:41:08.000
"DATA/CN_O_3_20010417T135951.LBL","CN_O_3_20010417T135951",2018-01-25T13:39:53.000
"DATA/CN_O_3_20010417T141518.LBL","CN_O_3_20010417T141518",2018-01-25T13:39:53.000
"DATA/CN_O_3_20010417T142553.LBL","CN_O_3_20010417T142553",2018-01-25T13:39:53.000
"DATA/CN_O_3_20010417T150350.LBL","CN_O_3_20010417T150350",2018-01-25T13:39:53.000
"DATA/CN_O_3_20010417T151745.LBL","CN_O_3_20010417T151745",2018-01-25T13:39:53.000
"DATA/CN_O_3_20010417T153817.LBL","CN_O_3_20010417T153817",2018-01-25T13:39:53.000
"DATA/CN_O_3_20010417T154952.LBL","CN_O_3_20010417T154952",2018-01-25T13:39:53.000
"DATA/CN_O_3_20010417T160106.LBL","CN_O_3_20010417T160106",2018-01-25T13:39:54.000
"DATA/CN_O_3_20010417T161241.LBL","CN_O_3_20010417T161241",2018-01-25T13:39:54.000
"DATA/CN_O_3_20010418T094358.LBL","CN_O_3_20010418T094358",2018-01-25T13:39:51.000
"DATA/CN_O_3_20010418T105723.LBL","CN_O_3_20010418T105723",2018-01-25T13:39:49.000
"DATA/CN_O_3_20010418T111218.LBL","CN_O_3_20010418T111218",2018-01-25T13:39:50.000
"DATA/CN_O_3_20010418T112245.LBL","CN_O_3_20010418T112245",2018-01-25T13:39:50.000
"DATA/CN_O_3_20010418T113210.LBL","CN_O_3_20010418T113210",2018-01-25T13:39:50.000
"DATA/CN_O_3_20010418T114129.LBL","CN_O_3_20010418T114129",2018-01-25T13:39:50.000
"DATA/CN_O_3_20010418T115054.LBL","CN_O_3_20010418T115054",2018-01-25T13:39:50.000
"DATA/CN_O_3_20010418T120032.LBL","CN_O_3_20010418T120032",2018-01-25T13:39:50.000
"DATA/CN_O_3_20010418T121120.LBL","CN_O_3_20010418T121120",2018-01-25T13:39:50.000
"DATA/CN_O_3_20010418T121930.LBL","CN_O_3_20010418T121930",2018-01-25T13:39:50.000
"DATA/CN_O_3_20010418T122831.LBL","CN_O_3_20010418T122831",2018-01-25T13:39:50.000
"DATA/CN_O_3_20010418T124353.LBL","CN_O_3_20010418T124353",2018-01-25T13:39:51.000
"DATA/CN_O_3_20010418T125316.LBL","CN_O_3_20010418T125316",2018-01-25T13:39:51.000
"DATA/CN_O_3_20010419T112053.LBL","CN_O_3_20010419T112053",2018-01-25T13:39:45.000
"DATA/CN_O_3_20010419T155508.LBL","CN_O_3_20010419T155508",2018-01-25T13:39:52.000
"DATA/CN_O_3_20010727T115500.LBL","CN_O_3_20010727T115500",2018-01-25T13:42:53.000
"DATA/CN_O_3_20010730T102100.LBL","CN_O_3_20010730T102100",2018-01-25T13:42:57.000
"DATA/CN_O_3_20011015T173235.LBL","CN_O_3_20011015T173235",2018-01-25T13:41:57.000
"DATA/CN_O_3_20011015T191612.LBL","CN_O_3_20011015T191612",2018-01-25T13:42:01.000
"DATA/CN_O_3_20011016T103641.LBL","CN_O_3_20011016T103641",2018-01-25T13:42:14.000
"DATA/CN_O_3_20011016T171644.LBL","CN_O_3_20011016T171644",2018-01-25T13:42:16.000
"DATA/CN_O_3_20011016T183036.LBL","CN_O_3_20011016T183036",2018-01-25T13:42:17.000
"DATA/CN_O_3_20011016T190120.LBL","CN_O_3_20011016T190120",2018-01-25T13:42:18.000
"DATA/CN_O_3_20011017T105326.LBL","CN_O_3_20011017T105326",2018-01-25T13:41:40.000
"DATA/CN_O_3_20011017T181723.LBL","CN_O_3_20011017T181723",2018-01-25T13:41:43.000
"DATA/CN_O_3_20011018T100000.LBL","CN_O_3_20011018T100000",2018-01-25T13:42:30.000
"DATA/CN_O_3_20011018T102046.LBL","CN_O_3_20011018T102046",2018-01-25T13:42:30.000
"DATA/CN_O_3_20011018T104011.LBL","CN_O_3_20011018T104011",2018-01-25T13:42:31.000
"DATA/CN_O_3_20011018T120936.LBL","CN_O_3_20011018T120936",2018-01-25T13:42:31.000
"DATA/CN_O_3_20011018T122553.LBL","CN_O_3_20011018T122553",2018-01-25T13:41:59.000
"DATA/CN_O_3_20011018T192144.LBL","CN_O_3_20011018T192144",2018-01-25T13:41:25.000
"DATA/CN_O_3_20011019T102926.LBL","CN_O_3_20011019T102926",2018-01-25T13:41:37.000
"DATA/CN_O_3_20011019T134334.LBL","CN_O_3_20011019T134334",2018-01-25T13:41:39.000
"DATA/CN_O_3_20011019T143517.LBL","CN_O_3_20011019T143517",2018-01-25T13:41:40.000
"DATA/CN_O_3_20020416T113229.LBL","CN_O_3_20020416T113229",2018-01-25T13:42:32.000
"DATA/CN_O_3_20020416T163319.LBL","CN_O_3_20020416T163319",2018-01-25T13:42:35.000
"DATA/CN_O_3_20020416T180253.LBL","CN_O_3_20020416T180253",2018-01-25T13:42:41.000
"DATA/CN_O_3_20020417T101006.LBL","CN_O_3_20020417T101006",2018-01-25T13:42:38.000
"DATA/CN_O_3_20020417T144317.LBL","CN_O_3_20020417T144317",2018-01-25T13:42:36.000
"DATA/CN_O_3_20020417T150050.LBL","CN_O_3_20020417T150050",2018-01-25T13:42:36.000
